%YAML 1.1
%TAG !u! tag:unity3d.com,2011:
--- !u!1 &3258797589867455417
GameObject:
  m_ObjectHideFlags: 0
  m_CorrespondingSourceObject: {fileID: 0}
  m_PrefabInstance: {fileID: 0}
  m_PrefabAsset: {fileID: 0}
  serializedVersion: 6
  m_Component:
  - component: {fileID: 5076927445120150353}
  - component: {fileID: 4531986188573159933}
  m_Layer: 0
  m_Name: UpgradeManager
  m_TagString: Untagged
  m_Icon: {fileID: 0}
  m_NavMeshLayer: 0
  m_StaticEditorFlags: 0
  m_IsActive: 1
--- !u!4 &5076927445120150353
Transform:
  m_ObjectHideFlags: 0
  m_CorrespondingSourceObject: {fileID: 0}
  m_PrefabInstance: {fileID: 0}
  m_PrefabAsset: {fileID: 0}
  m_GameObject: {fileID: 3258797589867455417}
  m_LocalRotation: {x: 0, y: 0, z: 0, w: 1}
  m_LocalPosition: {x: 0, y: 0, z: 0}
  m_LocalScale: {x: 1, y: 1, z: 1}
  m_Children: []
  m_Father: {fileID: 0}
  m_RootOrder: 0
  m_LocalEulerAnglesHint: {x: 0, y: 0, z: 0}
--- !u!114 &4531986188573159933
MonoBehaviour:
  m_ObjectHideFlags: 0
  m_CorrespondingSourceObject: {fileID: 0}
  m_PrefabInstance: {fileID: 0}
  m_PrefabAsset: {fileID: 0}
  m_GameObject: {fileID: 3258797589867455417}
  m_Enabled: 1
  m_EditorHideFlags: 0
  m_Script: {fileID: 11500000, guid: 5451b40f60cf58d9daab2e97c093289d, type: 3}
  m_Name: 
  m_EditorClassIdentifier: 
  money: 100
  boxesPerSecond: 1
  loadRateCost: 10
  numberOfVehicles: 0
  vanUpgradeCost: 20
  vanCapacity: 5
  capacityUpgradeCost: 25
  panel: {fileID: 0}
  vehicles: []
  vehiclePrefab: {fileID: 8295821923225822281, guid: 2265b5b5974d4bb4f87fb82ac4676d70,
    type: 3}
