%YAML 1.1
%TAG !u! tag:unity3d.com,2011:
--- !u!1 &6175195705342313566
GameObject:
  m_ObjectHideFlags: 0
  m_CorrespondingSourceObject: {fileID: 0}
  m_PrefabInstance: {fileID: 0}
  m_PrefabAsset: {fileID: 0}
  serializedVersion: 6
  m_Component:
  - component: {fileID: 6175195705342313567}
  - component: {fileID: 6175195705342313564}
  - component: {fileID: 253747880}
  m_Layer: 0
  m_Name: CityCenter
  m_TagString: Untagged
  m_Icon: {fileID: 0}
  m_NavMeshLayer: 0
  m_StaticEditorFlags: 0
  m_IsActive: 1
--- !u!4 &6175195705342313567
Transform:
  m_ObjectHideFlags: 0
  m_CorrespondingSourceObject: {fileID: 0}
  m_PrefabInstance: {fileID: 0}
  m_PrefabAsset: {fileID: 0}
  m_GameObject: {fileID: 6175195705342313566}
  m_LocalRotation: {x: 0, y: 0, z: 0, w: 1}
  m_LocalPosition: {x: 0, y: 0, z: 0}
  m_LocalScale: {x: 1, y: 1, z: 1}
  m_Children: []
  m_Father: {fileID: 0}
  m_RootOrder: 0
  m_LocalEulerAnglesHint: {x: 0, y: 0, z: 0}
--- !u!114 &6175195705342313564
MonoBehaviour:
  m_ObjectHideFlags: 0
  m_CorrespondingSourceObject: {fileID: 0}
  m_PrefabInstance: {fileID: 0}
  m_PrefabAsset: {fileID: 0}
  m_GameObject: {fileID: 6175195705342313566}
  m_Enabled: 1
  m_EditorHideFlags: 0
  m_Script: {fileID: 11500000, guid: 99866ed5394d37b438a39417e6a8dce6, type: 3}
  m_Name: 
  m_EditorClassIdentifier: 
  buildings: []
  buildingPrefab: {fileID: 4546492731793255960, guid: 94400c5fa0c70e2439c7df5cba32a249,
    type: 3}
  heighestPoint: 7
  lowestPoint: 1
  gridX: 100
  gridY: 100
  spacing: 10
  roadThickness: 10
--- !u!114 &253747880
MonoBehaviour:
  m_ObjectHideFlags: 0
  m_CorrespondingSourceObject: {fileID: 0}
  m_PrefabInstance: {fileID: 0}
  m_PrefabAsset: {fileID: 0}
  m_GameObject: {fileID: 6175195705342313566}
  m_Enabled: 1
  m_EditorHideFlags: 0
  m_Script: {fileID: 11500000, guid: 095ca220bd3f3b6b3a1b610099d59a57, type: 3}
  m_Name: 
  m_EditorClassIdentifier: 
  buildings: {fileID: 6175195705342313564}
  collectionPointPrefab: {fileID: 8984187280782814794, guid: 788af84e15e19a012be3e0e4e2dd2d64,
    type: 3}
  dropPointPrefab: {fileID: 7288050952549285439, guid: abf45f970f9ef5dc28bfebc064409cae,
    type: 3}
  boxesPerSpawn: 5
  boxesPerSpawnRandomness: 9
  stacksPerSpawn: 3
  stacksPerSpawnRandomness: 5
  delayBetweenSpawn: 25
  maxMoves: 5
  nextSpawnTime: 0
  types: 
  collectionPoints: []
  dropPoints: []
  minRadiusFromOtherPoints: 15
  fromBuildingIndex: 
  toBuildingIndex: 
  defaultColor: {r: 1, g: 1, b: 1, a: 1}
  totalCount: 0
